{
	"service_name":"",
	"message":"",
	"global_error":"",
	"error":"",
	"data":{
		"result_set":[
			{
				"round_title":"Warm Up",
				"no_of_sets":"3",
				"exercise":[
					{
						"exercise_id":"1",
						"title":"Sting Story.....",
						"description":"dfdsf",
						"fn_level":"1,3",
						"muscle_groups":"whole body,Biceps",
						"equipment_required":"2",
						"video_url":"https://vimeo.com/313024242",
						"media_data":{
							"image":"https://i.vimeocdn.com/video/754233831_750x500.jpg",
							"title":"modified push up 90 degree hold",
							"video_id":"313024242",
							"media_type":"vimeo",
							"duration":27,
							"url":"https://vimeo.com/313024242",
							"thumb_id":"754233831"
						},
						"status":"2",
						"added_date":"2019-10-28 16:50:26",
						"workout_exercise_id":"18",
						"workout_date":"2019-12-01 22:14:26",
						"round":"0",
						"no_of_sets":"3",
						"fitness_level":"Newbie,Intermediate"
					},
					{
						"exercise_id":"2",
						"title":"Muscle Build Up....",
						"description":"This is for testing",
						"fn_level":"2,3",
						"muscle_groups":"whole body,Chest",
						"equipment_required":"2",
						"video_url":"https://vimeo.com/362009469",
						"media_data":{
							"image":"https://i.vimeocdn.com/video/816641655_750x500.jpg",
							"title":"Shah Rukh Khan, Emraan Hashmi and more at the premiere of 'Bard of Blood'",
							"video_id":"362009469",
							"media_type":"vimeo",
							"duration":215,
							"url":"https://vimeo.com/362009469",
							"thumb_id":"816641655"
						},
						"status":"1",
						"added_date":"2019-10-28 18:48:31",
						"workout_exercise_id":"14",
						"workout_date":"2019-11-30 21:26:08",
						"round":"0",
						"no_of_sets":"3",
						"fitness_level":"Beginner,Intermediate"
					}
				]
			},
			{
				"round_title":"Round 1",
				"no_of_sets":"3",
				"exercise":[
					{
						"exercise_id":"1",
						"title":"Sting Story.....",
						"description":"dfdsf",
						"fn_level":"1,3",
						"muscle_groups":"whole body,Biceps",
						"equipment_required":"2",
						"video_url":"https://vimeo.com/313024242",
						"media_data":{
							"image":"https://i.vimeocdn.com/video/754233831_750x500.jpg",
							"title":"modified push up 90 degree hold",
							"video_id":"313024242",
							"media_type":"vimeo",
							"duration":27,
							"url":"https://vimeo.com/313024242",
							"thumb_id":"754233831"
						},
						"status":"2",
						"added_date":"2019-10-28 16:50:26",
						"workout_exercise_id":"6",
						"workout_date":"2019-11-30 20:10:35",
						"round":"1",
						"no_of_sets":"3",
						"fitness_level":"Newbie,Intermediate"
					}
				]
			},
			{
				"round_title":"Round 2",
				"no_of_sets":"3",
				"exercise":[
					{
						"exercise_id":"2",
						"title":"Muscle Build Up....",
						"description":"This is for testing",
						"fn_level":"2,3",
						"muscle_groups":"whole body,Chest",
						"equipment_required":"2",
						"video_url":"https://vimeo.com/362009469",
						"media_data":{
							"image":"https://i.vimeocdn.com/video/816641655_750x500.jpg",
							"title":"Shah Rukh Khan, Emraan Hashmi and more at the premiere of 'Bard of Blood'",
							"video_id":"362009469",
							"media_type":"vimeo",
							"duration":215,
							"url":"https://vimeo.com/362009469",
							"thumb_id":"816641655"
						},
						"status":"1",
						"added_date":"2019-10-28 18:48:31",
						"workout_exercise_id":"7",
						"workout_date":"2019-11-30 20:13:18",
						"round":"2",
						"no_of_sets":"3",
						"fitness_level":"Beginner,Intermediate"
					}
				]
			},
			{
				"round_title":"Round 3",
				"no_of_sets":"3",
				"exercise":[
					{
						"exercise_id":"2",
						"title":"Muscle Build Up....",
						"description":"This is for testing",
						"fn_level":"2,3",
						"muscle_groups":"whole body,Chest",
						"equipment_required":"2",
						"video_url":"https://vimeo.com/362009469",
						"media_data":{
							"image":"https://i.vimeocdn.com/video/816641655_750x500.jpg",
							"title":"Shah Rukh Khan, Emraan Hashmi and more at the premiere of 'Bard of Blood'",
							"video_id":"362009469",
							"media_type":"vimeo",
							"duration":215,
							"url":"https://vimeo.com/362009469",
							"thumb_id":"816641655"
						},
						"status":"1",
						"added_date":"2019-10-28 18:48:31",
						"workout_exercise_id":"15",
						"workout_date":"2019-12-01 21:57:08",
						"round":"3",
						"no_of_sets":"3",
						"fitness_level":"Beginner,Intermediate"
					}
				]
			},
			{
				"round_title":"Round 4",
				"no_of_sets":"3",
				"exercise":[
					{
						"exercise_id":"1",
						"title":"Sting Story.....",
						"description":"dfdsf",
						"fn_level":"1,3",
						"muscle_groups":"whole body,Biceps",
						"equipment_required":"2",
						"video_url":"https://vimeo.com/313024242",
						"media_data":{
							"image":"https://i.vimeocdn.com/video/754233831_750x500.jpg",
							"title":"modified push up 90 degree hold",
							"video_id":"313024242",
							"media_type":"vimeo",
							"duration":27,
							"url":"https://vimeo.com/313024242",
							"thumb_id":"754233831"
						},
						"status":"2",
						"added_date":"2019-10-28 16:50:26",
						"workout_exercise_id":"10",
						"workout_date":"2019-11-30 20:14:01",
						"round":"4",
						"no_of_sets":"3",
						"fitness_level":"Newbie,Intermediate"
					},
					{
						"exercise_id":"2",
						"title":"Muscle Build Up....",
						"description":"This is for testing",
						"fn_level":"2,3",
						"muscle_groups":"whole body,Chest",
						"equipment_required":"2",
						"video_url":"https://vimeo.com/362009469",
						"media_data":{
							"image":"https://i.vimeocdn.com/video/816641655_750x500.jpg",
							"title":"Shah Rukh Khan, Emraan Hashmi and more at the premiere of 'Bard of Blood'",
							"video_id":"362009469",
							"media_type":"vimeo",
							"duration":215,
							"url":"https://vimeo.com/362009469",
							"thumb_id":"816641655"
						},
						"status":"1",
						"added_date":"2019-10-28 18:48:31",
						"workout_exercise_id":"9",
						"workout_date":"2019-11-30 20:13:53",
						"round":"4",
						"no_of_sets":"3",
						"fitness_level":"Beginner,Intermediate"
					}
				]
			},
			{
				"round_title":"Round 5",
				"no_of_sets":"3",
				"exercise":[
					{
						"exercise_id":"1",
						"title":"Sting Story.....",
						"description":"dfdsf",
						"fn_level":"1,3",
						"muscle_groups":"whole body,Biceps",
						"equipment_required":"2",
						"video_url":"https://vimeo.com/313024242",
						"media_data":{
							"image":"https://i.vimeocdn.com/video/754233831_750x500.jpg",
							"title":"modified push up 90 degree hold",
							"video_id":"313024242",
							"media_type":"vimeo",
							"duration":27,
							"url":"https://vimeo.com/313024242",
							"thumb_id":"754233831"
						},
						"status":"2",
						"added_date":"2019-10-28 16:50:26",
						"workout_exercise_id":"3",
						"workout_date":"2019-12-01 21:57:17",
						"round":"5",
						"no_of_sets":"3",
						"fitness_level":"Newbie,Intermediate"
					},
					{
						"exercise_id":"2",
						"title":"Muscle Build Up....",
						"description":"This is for testing",
						"fn_level":"2,3",
						"muscle_groups":"whole body,Chest",
						"equipment_required":"2",
						"video_url":"https://vimeo.com/362009469",
						"media_data":{
							"image":"https://i.vimeocdn.com/video/816641655_750x500.jpg",
							"title":"Shah Rukh Khan, Emraan Hashmi and more at the premiere of 'Bard of Blood'",
							"video_id":"362009469",
							"media_type":"vimeo",
							"duration":215,
							"url":"https://vimeo.com/362009469",
							"thumb_id":"816641655"
						},
						"status":"1",
						"added_date":"2019-10-28 18:48:31",
						"workout_exercise_id":"16",
						"workout_date":"2019-12-01 21:57:17",
						"round":"5",
						"no_of_sets":"3",
						"fitness_level":"Beginner,Intermediate"
					}
				]
			}
		]
	},
	"response_code":200
}